{
    "plot_type": {
        "type": ["scatter", "bar"],
        "label": "Plot Type",
        "default": "bar"
    },
    "plot_mode": {
        "type": ["markers"],
        "label": "Plot Mode",
        "default": "markers"
    },
    "plot_title": {
        "type": "string",
        "label": "Title",
        "default": "Impact of L1 Cache Parameters"
    },
    "x_label": {
        "type": "string",
        "label": "X label",
        "default": "Trace file"
    },
    "y_label": {
        "type": "string",
        "label": "Y label",
        "default": "Simulation time (ns)"
    },
    "group_selection": {
        "type": "string",
        "label": "Group selection string",
        "default": "inputs[0]::l1cache::cache_size AND inputs[0]::l1cache::associativity"
    },
    "x_axis_selection": {
        "type": "string",
        "label": "X-axis selection string",
        "default": "input_info[0]::trace"
    },
    "y_axis_selection": {
        "type": "string",
        "label": "Y-axis selection string",
        "default": "memory[0]::cycles_attempted_issue_but_rejected::SimTime"
    }
}
